stop_id,stop_name,latitude,longitude
1,Ballygunge Tram Terminus,22.5198641,88.3657023
2,Fern Road,22.5198641,88.3657023
3,Gariahat More – Citi Mart,22.5198195,88.3662254
4,Gariahat More,22.5191852,88.3645034
5,Basanti Devi College,22.5188136,88.3631301
6,Hindustan Park,22.5183131,88.3590531
7,Triangular Park (Near City Style Mall),22.5181396,88.3581895
8,Lake View,22.5172526,88.3542788
9,Priya Cinema Hall,22.5171188,88.3536082
10,Deshapriya Park,22.5169263,88.3526974
11,Sarat Bose Road (Deshopriya Park crossing),22.5166042,88.3502512
12,Lake Market,22.5164654,88.3494519
13,Rashbehari Crossing 1,22.5163614,88.3460938
14,Rashbehari Crossing 2,22.5152939,88.3451786
15,Tollygunge Police Station,22.5152939,88.3451786
16,Southern Market,22.5127269,88.3452806
17,Sahajan Market,22.5127269,88.3452806
18,Mudali,22.5120436,88.345257
19,Tollygunge Rail Bridge,22.5095013,88.3450532
20,Rabindra Sarobar Metro Station,22.5075438,88.3449244
21,Charu Market,22.5075438,88.3449244
22,Bhawani Cinema Hall,22.5056953,88.3448493
23,Charu Market Police Station,22.5037525,88.3449673
24,Prince Anwar Shah Xing,22.499986,88.3450424
25,M R Bangur Hospital,22.499986,88.3450424
26,Golf Club,22.498177,88.3452087
27,Tollygunge Tram Depot,22.493533,88.345536
